lab5/part4/cpu_wavedata.vcd
$date
	Wed Feb  9 07:43:43 2022
$end
$version
	Icarus Verilog
$end
$timescale
	1s
$end
$scope module cpu_tb $end
$var wire 32 ! PC [31:0] $end
$var wire 32 " INSTRUCTION [31:0] $end
$var reg 1 # CLK $end
$var reg 1 $ RESET $end
$scope module mycpu $end
$var wire 1 # CLK $end
$var wire 32 % INSTRUCTION [31:0] $end
$var wire 1 $ RESET $end
$var wire 1 & ZERO $end
$var wire 1 ' WRITE_ENABLE $end
$var wire 8 ( TWOS [7:0] $end
$var wire 1 ) SUB_SELECT $end
$var wire 8 * SUB_RESULT [7:0] $end
$var wire 8 + REGOUT2 [7:0] $end
$var wire 8 , REGOUT1 [7:0] $end
$var wire 32 - NEXTPC2 [31:0] $end
$var wire 32 . NEXTPC [31:0] $end
$var wire 1 / JUMP $end
$var wire 1 0 IMM_SELECT $end
$var wire 8 1 IMM_RESULT [7:0] $end
$var wire 32 2 B_MUX_OUT [31:0] $end
$var wire 1 3 BRANCH $end
$var wire 1 4 AND_OUT $end
$var wire 8 5 ALU_OUT [7:0] $end
$var wire 3 6 ALUOP [2:0] $end
$var wire 32 7 ADDR_OUT [31:0] $end
$var reg 32 8 PC [31:0] $end
$scope module a1 $end
$var wire 1 4 OUTPUT $end
$var wire 1 & INPUT2 $end
$var wire 1 3 INPUT1 $end
$upscope $end
$scope module adr $end
$var wire 32 9 FOUR [31:0] $end
$var wire 32 : PC [31:0] $end
$var wire 32 ; NEXTPC [31:0] $end
$upscope $end
$scope module alu $end
$var wire 3 < SELECT [2:0] $end
$var wire 8 = OR_OUT [7:0] $end
$var wire 8 > FORWARD_OUT [7:0] $end
$var wire 8 ? DATA2 [7:0] $end
$var wire 8 @ DATA1 [7:0] $end
$var wire 8 A AND_OUT [7:0] $end
$var wire 8 B ADD_OUT [7:0] $end
$var reg 8 C RESULT [7:0] $end
$var reg 1 & ZERO $end
$scope module add1 $end
$var wire 8 D DATA2 [7:0] $end
$var wire 8 E DATA1 [7:0] $end
$var wire 8 F ADD_OUT [7:0] $end
$upscope $end
$scope module and1 $end
$var wire 8 G AND_OUT [7:0] $end
$var wire 8 H DATA2 [7:0] $end
$var wire 8 I DATA1 [7:0] $end
$upscope $end
$scope module fwd1 $end
$var wire 8 J FORWARD_OUT [7:0] $end
$var wire 8 K DATA2 [7:0] $end
$upscope $end
$scope module or1 $end
$var wire 8 L OR_OUT [7:0] $end
$var wire 8 M DATA2 [7:0] $end
$var wire 8 N DATA1 [7:0] $end
$upscope $end
$upscope $end
$scope module branch_mux $end
$var wire 32 O INPUT1 [31:0] $end
$var wire 1 4 SELECT $end
$var wire 32 P INPUT2 [31:0] $end
$var reg 32 Q OUTPUT [31:0] $end
$upscope $end
$scope module for_sub $end
$var wire 8 R OUTPUT [7:0] $end
$var wire 8 S INPUT [7:0] $end
$upscope $end
$scope module immediate_or_reg $end
$var wire 8 T INPUT2 [7:0] $end
$var wire 1 0 SELECT $end
$var wire 8 U INPUT1 [7:0] $end
$var reg 8 V OUTPUT [7:0] $end
$upscope $end
$scope module jump_mux $end
$var wire 32 W INPUT1 [31:0] $end
$var wire 1 / SELECT $end
$var wire 32 X INPUT2 [31:0] $end
$var reg 32 Y OUTPUT [31:0] $end
$upscope $end
$scope module mucu $end
$var wire 8 Z OPCODE [7:0] $end
$var reg 3 [ ALUOP [2:0] $end
$var reg 1 3 BRANCH $end
$var reg 1 / JUMP $end
$var reg 1 0 MUXIMM $end
$var reg 1 ) MUXSUB $end
$var reg 1 ' WRITEENABLE $end
$upscope $end
$scope module myregfile $end
$var wire 1 # CLK $end
$var wire 8 \ IN [7:0] $end
$var wire 3 ] INADDRESS [2:0] $end
$var wire 8 ^ OUT1 [7:0] $end
$var wire 3 _ OUT1ADDRESS [2:0] $end
$var wire 8 ` OUT2 [7:0] $end
$var wire 3 a OUT2ADDRESS [2:0] $end
$var wire 1 $ RESET $end
$var wire 1 ' WRITE $end
$upscope $end
$scope module na $end
$var wire 32 b CURRENT_ADDR [31:0] $end
$var wire 8 c OFFSET [7:0] $end
$var wire 32 d SHIFTED [31:0] $end
$var wire 32 e NEW_ADDR [31:0] $end
$var wire 32 f EXTENDED [31:0] $end
$upscope $end
$scope module select2s $end
$var wire 8 g INPUT1 [7:0] $end
$var wire 8 h INPUT2 [7:0] $end
$var wire 1 ) SELECT $end
$var reg 8 i OUTPUT [7:0] $end
$upscope $end
$upscope $end
$upscope $end
$enddefinitions $end
#0
$dumpvars
bx i
bx h
bx g
bx f
bx e
bx d
bx c
bx b
bx a
bx `
bx _
bx ^
bx ]
bx \
bx [
bx Z
bx Y
bx X
bx W
bx V
bx U
bx T
bx S
bx R
bx Q
bx P
bx O
bx N
bx M
bx L
bx K
bx J
bx I
bx H
bx G
bx F
bx E
bx D
bx C
bx B
bx A
bx @
bx ?
bx >
bx =
bx <
bx ;
bx :
b100 9
bx 8
bx 7
bx 6
bx 5
x4
x3
bx 2
bx 1
x0
x/
bx .
bx -
bx ,
bx +
bx *
x)
bx (
x'
x&
bx %
1$
0#
bx "
bx !
$end
#4
b0 !
b0 8
b0 :
1#
#5
b100 .
b100 ;
b100 O
b100 b
0$
#6
b10000 d
b0 Z
b100 ]
b0 _
b101 a
b101 T
b100 f
b100 c
b1000000000000000101 "
b1000000000000000101 %
#7
b100 -
b100 Y
b100 2
b100 Q
b100 W
04
0&
b101 1
b101 ?
b101 D
b101 H
b101 K
b101 M
b101 V
0/
03
1'
0)
b0 6
b0 <
b0 [
10
#8
b101 5
b101 C
b101 \
b0 *
b0 U
b0 i
bx1x1 =
bx1x1 L
b0x0x A
b0x0x G
b101 >
b101 J
b10100 7
b10100 P
b10100 X
b10100 e
b0 ,
b0 @
b0 E
b0 I
b0 N
b0 ^
b0 +
b0 S
b0 `
b0 g
0#
#9
b101 =
b101 L
b0 A
b0 G
b0 (
b0 R
b0 h
#10
b101 B
b101 F
#12
1#
#13
b100 !
b100 8
b100 :
#14
b1000 -
b1000 Y
b1000 2
b1000 Q
b1000 W
b1000 .
b1000 ;
b1000 O
b1000 b
#15
b101 ]
b10100 d
b101 f
b101 c
b1010000000000000101 "
b1010000000000000101 %
#16
0#
#17
b11100 7
b11100 P
b11100 X
b11100 e
#20
1#
#21
b1000 !
b1000 8
b1000 :
#22
b1100 -
b1100 Y
b1100 2
b1100 Q
b1100 W
b1100 .
b1100 ;
b1100 O
b1100 b
#23
b0 1
b0 ?
b0 D
b0 H
b0 K
b0 M
b0 V
b101 *
b101 U
b101 i
b110 Z
b10 ]
b0 a
b0 T
b1000 d
b10 f
b10 c
b101 +
b101 S
b101 `
b101 g
b110000000100000000000000000 "
b110000000100000000000000000 %
#24
b11100 -
b11100 Y
b0 5
b0 C
b0 \
b0 =
b0 L
1/
0'
x)
bx 6
bx <
bx [
x0
b0 >
b0 J
b11111011 (
b11111011 R
b11111011 h
0#
#25
1&
b10100 -
b10100 Y
b0 B
b0 F
b0 +
b0 S
b0 `
b0 g
b10100 7
b10100 P
b10100 X
b10100 e
#26
b0 (
b0 R
b0 h
#28
1#
#29
b10100 !
b10100 8
b10100 :
#30
b11000 2
b11000 Q
b11000 W
b11000 .
b11000 ;
b11000 O
b11000 b
#31
b1 Z
b0 ]
b110 a
b110 T
b0 d
b0 f
b0 c
b1000000000000000000000110 "
b1000000000000000000000110 %
#32
b11000 -
b11000 Y
b0 *
b0 U
b0 i
b0 1
b0 ?
b0 D
b0 H
b0 K
b0 M
b0 V
0/
1'
0)
b0 6
b0 <
b0 [
00
0#
#33
b11000 7
b11000 P
b11000 X
b11000 e
#36
1#
#37
b11000 !
b11000 8
b11000 :
#38
b11100 -
b11100 Y
b11100 2
b11100 Q
b11100 W
b11100 .
b11100 ;
b11100 O
b11100 b
#39
b111 Z
b110 ]
b100 _
b101 a
b101 T
b11111111111111111111111111111000 d
b11111111111111111111111111111110 f
b11111110 c
b111111111100000010000000101 "
b111111111100000010000000101 %
#40
b11000 -
b11000 Y
b11000 2
b11000 Q
b11000 W
14
13
0'
1)
0#
#41
b10100 -
b10100 Y
b10100 2
b10100 Q
b10100 W
b101 ,
b101 @
b101 E
b101 I
b101 N
b101 ^
b101 +
b101 S
b101 `
b101 g
b10100 7
b10100 P
b10100 X
b10100 e
#42
b11111011 1
b11111011 ?
b11111011 D
b11111011 H
b11111011 K
b11111011 M
b11111011 V
b11111011 *
b11111011 U
b11111011 i
b101 =
b101 L
b11111011 (
b11111011 R
b11111011 h
#43
b11111011 5
b11111011 C
b11111011 \
b11111111 =
b11111111 L
b1 A
b1 G
b11111011 >
b11111011 J
#44
1#
#45
b10100 !
b10100 8
b10100 :
#46
b11000 .
b11000 ;
b11000 O
b11000 b
#47
b1 Z
b0 ]
b0 _
b110 a
b110 T
b0 d
b0 f
b0 c
b1000000000000000000000110 "
b1000000000000000000000110 %
#48
b11000 -
b11000 Y
b11000 2
b11000 Q
b11000 W
b101 1
b101 ?
b101 D
b101 H
b101 K
b101 M
b101 V
04
b101 *
b101 U
b101 i
03
1'
0)
0#
#49
b0 1
b0 ?
b0 D
b0 H
b0 K
b0 M
b0 V
b101 5
b101 C
b101 \
b0 *
b0 U
b0 i
b101 =
b101 L
b101 A
b101 G
b101 >
b101 J
b0 ,
b0 @
b0 E
b0 I
b0 N
b0 ^
b0 +
b0 S
b0 `
b0 g
b11000 7
b11000 P
b11000 X
b11000 e
#50
b0 5
b0 C
b0 \
b0 =
b0 L
b0 >
b0 J
b0 A
b0 G
b0 (
b0 R
b0 h
#52
1#
#53
b11000 !
b11000 8
b11000 :
#54
b11100 -
b11100 Y
b11100 2
b11100 Q
b11100 W
b11100 .
b11100 ;
b11100 O
b11100 b
#55
b111 Z
b110 ]
b100 _
b101 a
b101 T
b11111111111111111111111111111000 d
b11111111111111111111111111111110 f
b11111110 c
b111111111100000010000000101 "
b111111111100000010000000101 %
#56
b11000 -
b11000 Y
b11000 2
b11000 Q
b11000 W
14
13
0'
1)
0#
#57
b10100 -
b10100 Y
b10100 2
b10100 Q
b10100 W
b101 ,
b101 @
b101 E
b101 I
b101 N
b101 ^
b101 +
b101 S
b101 `
b101 g
b10100 7
b10100 P
b10100 X
b10100 e
#58
b11111011 1
b11111011 ?
b11111011 D
b11111011 H
b11111011 K
b11111011 M
b11111011 V
b11111011 *
b11111011 U
b11111011 i
b101 =
b101 L
b11111011 (
b11111011 R
b11111011 h
#59
b11111011 5
b11111011 C
b11111011 \
b11111111 =
b11111111 L
b1 A
b1 G
b11111011 >
b11111011 J
#60
1#
#61
b10100 !
b10100 8
b10100 :
#62
b11000 .
b11000 ;
b11000 O
b11000 b
#63
b1 Z
b0 ]
b0 _
b110 a
b110 T
b0 d
b0 f
b0 c
b1000000000000000000000110 "
b1000000000000000000000110 %
#64
b11000 -
b11000 Y
b11000 2
b11000 Q
b11000 W
b101 1
b101 ?
b101 D
b101 H
b101 K
b101 M
b101 V
04
b101 *
b101 U
b101 i
03
1'
0)
0#
#65
b0 1
b0 ?
b0 D
b0 H
b0 K
b0 M
b0 V
b101 5
b101 C
b101 \
b0 *
b0 U
b0 i
b101 =
b101 L
b101 A
b101 G
b101 >
b101 J
b0 ,
b0 @
b0 E
b0 I
b0 N
b0 ^
b0 +
b0 S
b0 `
b0 g
b11000 7
b11000 P
b11000 X
b11000 e
#66
b0 5
b0 C
b0 \
b0 =
b0 L
b0 >
b0 J
b0 A
b0 G
b0 (
b0 R
b0 h
#68
1#
#69
b11000 !
b11000 8
b11000 :
#70
b11100 -
b11100 Y
b11100 2
b11100 Q
b11100 W
b11100 .
b11100 ;
b11100 O
b11100 b
#71
b111 Z
b110 ]
b100 _
b101 a
b101 T
b11111111111111111111111111111000 d
b11111111111111111111111111111110 f
b11111110 c
b111111111100000010000000101 "
b111111111100000010000000101 %
#72
b11000 -
b11000 Y
b11000 2
b11000 Q
b11000 W
14
13
0'
1)
0#
1$
#73
b10100 -
b10100 Y
b10100 2
b10100 Q
b10100 W
b101 ,
b101 @
b101 E
b101 I
b101 N
b101 ^
b101 +
b101 S
b101 `
b101 g
b10100 7
b10100 P
b10100 X
b10100 e
#74
b11111011 1
b11111011 ?
b11111011 D
b11111011 H
b11111011 K
b11111011 M
b11111011 V
b11111011 *
b11111011 U
b11111011 i
b101 =
b101 L
b11111011 (
b11111011 R
b11111011 h
0$
#75
b11111011 5
b11111011 C
b11111011 \
b11111111 =
b11111111 L
b1 A
b1 G
b11111011 >
b11111011 J
#76
1#
#77
b10100 !
b10100 8
b10100 :
#78
b11000 .
b11000 ;
b11000 O
b11000 b
#79
b1 Z
b0 ]
b0 _
b110 a
b110 T
b0 d
b0 f
b0 c
b1000000000000000000000110 "
b1000000000000000000000110 %
#80
b11000 -
b11000 Y
b11000 2
b11000 Q
b11000 W
b101 1
b101 ?
b101 D
b101 H
b101 K
b101 M
b101 V
04
b101 *
b101 U
b101 i
03
1'
0)
0#
#81
b0 1
b0 ?
b0 D
b0 H
b0 K
b0 M
b0 V
b101 5
b101 C
b101 \
b0 *
b0 U
b0 i
b101 =
b101 L
b101 A
b101 G
b101 >
b101 J
b0 ,
b0 @
b0 E
b0 I
b0 N
b0 ^
b0 +
b0 S
b0 `
b0 g
b11000 7
b11000 P
b11000 X
b11000 e
#82
b0 5
b0 C
b0 \
b0 =
b0 L
b0 >
b0 J
b0 A
b0 G
b0 (
b0 R
b0 h
#84
1#
#85
b11000 !
b11000 8
b11000 :
#86
b11100 -
b11100 Y
b11100 2
b11100 Q
b11100 W
b11100 .
b11100 ;
b11100 O
b11100 b
#87
b111 Z
b110 ]
b100 _
b101 a
b101 T
b11111111111111111111111111111000 d
b11111111111111111111111111111110 f
b11111110 c
b111111111100000010000000101 "
b111111111100000010000000101 %
#88
b11000 -
b11000 Y
b11000 2
b11000 Q
b11000 W
14
13
0'
1)
0#
#89
b10100 -
b10100 Y
b10100 2
b10100 Q
b10100 W
b101 ,
b101 @
b101 E
b101 I
b101 N
b101 ^
b101 +
b101 S
b101 `
b101 g
b10100 7
b10100 P
b10100 X
b10100 e
#90
b11111011 1
b11111011 ?
b11111011 D
b11111011 H
b11111011 K
b11111011 M
b11111011 V
b11111011 *
b11111011 U
b11111011 i
b101 =
b101 L
b11111011 (
b11111011 R
b11111011 h
#91
b11111011 5
b11111011 C
b11111011 \
b11111111 =
b11111111 L
b1 A
b1 G
b11111011 >
b11111011 J
#92
1#
#93
b10100 !
b10100 8
b10100 :
#94
b11000 .
b11000 ;
b11000 O
b11000 b
#95
b1 Z
b0 ]
b0 _
b110 a
b110 T
b0 d
b0 f
b0 c
b1000000000000000000000110 "
b1000000000000000000000110 %
#96
b11000 -
b11000 Y
b11000 2
b11000 Q
b11000 W
b101 1
b101 ?
b101 D
b101 H
b101 K
b101 M
b101 V
04
b101 *
b101 U
b101 i
03
1'
0)
0#
#97
b0 1
b0 ?
b0 D
b0 H
b0 K
b0 M
b0 V
b101 5
b101 C
b101 \
b0 *
b0 U
b0 i
b101 =
b101 L
b101 A
b101 G
b101 >
b101 J
b0 ,
b0 @
b0 E
b0 I
b0 N
b0 ^
b0 +
b0 S
b0 `
b0 g
b11000 7
b11000 P
b11000 X
b11000 e
#98
b0 5
b0 C
b0 \
b0 =
b0 L
b0 >
b0 J
b0 A
b0 G
b0 (
b0 R
b0 h
#100
1#
#101
b11000 !
b11000 8
b11000 :
#102
b11100 -
b11100 Y
b11100 2
b11100 Q
b11100 W
b11100 .
b11100 ;
b11100 O
b11100 b
#103
b111 Z
b110 ]
b100 _
b101 a
b101 T
b11111111111111111111111111111000 d
b11111111111111111111111111111110 f
b11111110 c
b111111111100000010000000101 "
b111111111100000010000000101 %
#104
b11000 -
b11000 Y
b11000 2
b11000 Q
b11000 W
14
13
0'
1)
0#
#105
b10100 -
b10100 Y
b10100 2
b10100 Q
b10100 W
b101 ,
b101 @
b101 E
b101 I
b101 N
b101 ^
b101 +
b101 S
b101 `
b101 g
b10100 7
b10100 P
b10100 X
b10100 e
#106
b11111011 1
b11111011 ?
b11111011 D
b11111011 H
b11111011 K
b11111011 M
b11111011 V
b11111011 *
b11111011 U
b11111011 i
b101 =
b101 L
b11111011 (
b11111011 R
b11111011 h
#107
b11111011 5
b11111011 C
b11111011 \
b11111111 =
b11111111 L
b1 A
b1 G
b11111011 >
b11111011 J
#108
1#
#109
b10100 !
b10100 8
b10100 :
#110
b11000 .
b11000 ;
b11000 O
b11000 b
#111
b1 Z
b0 ]
b0 _
b110 a
b110 T
b0 d
b0 f
b0 c
b1000000000000000000000110 "
b1000000000000000000000110 %
#112
b11000 -
b11000 Y
b11000 2
b11000 Q
b11000 W
b101 1
b101 ?
b101 D
b101 H
b101 K
b101 M
b101 V
04
b101 *
b101 U
b101 i
03
1'
0)
0#
#113
b0 1
b0 ?
b0 D
b0 H
b0 K
b0 M
b0 V
b101 5
b101 C
b101 \
b0 *
b0 U
b0 i
b101 =
b101 L
b101 A
b101 G
b101 >
b101 J
b0 ,
b0 @
b0 E
b0 I
b0 N
b0 ^
b0 +
b0 S
b0 `
b0 g
b11000 7
b11000 P
b11000 X
b11000 e
#114
b0 5
b0 C
b0 \
b0 =
b0 L
b0 >
b0 J
b0 A
b0 G
b0 (
b0 R
b0 h
#116
1#
#117
b11000 !
b11000 8
b11000 :
#118
b11100 -
b11100 Y
b11100 2
b11100 Q
b11100 W
b11100 .
b11100 ;
b11100 O
b11100 b
#119
b111 Z
b110 ]
b100 _
b101 a
b101 T
b11111111111111111111111111111000 d
b11111111111111111111111111111110 f
b11111110 c
b111111111100000010000000101 "
b111111111100000010000000101 %
#120
b11000 -
b11000 Y
b11000 2
b11000 Q
b11000 W
14
13
0'
1)
0#
#121
b10100 -
b10100 Y
b10100 2
b10100 Q
b10100 W
b101 ,
b101 @
b101 E
b101 I
b101 N
b101 ^
b101 +
b101 S
b101 `
b101 g
b10100 7
b10100 P
b10100 X
b10100 e
#122
b11111011 1
b11111011 ?
b11111011 D
b11111011 H
b11111011 K
b11111011 M
b11111011 V
b11111011 *
b11111011 U
b11111011 i
b101 =
b101 L
b11111011 (
b11111011 R
b11111011 h
#123
b11111011 5
b11111011 C
b11111011 \
b11111111 =
b11111111 L
b1 A
b1 G
b11111011 >
b11111011 J
#124
1#
#125
b10100 !
b10100 8
b10100 :
#126
b11000 .
b11000 ;
b11000 O
b11000 b
#127
b1 Z
b0 ]
b0 _
b110 a
b110 T
b0 d
b0 f
b0 c
b1000000000000000000000110 "
b1000000000000000000000110 %
#128
b11000 -
b11000 Y
b11000 2
b11000 Q
b11000 W
b101 1
b101 ?
b101 D
b101 H
b101 K
b101 M
b101 V
04
b101 *
b101 U
b101 i
03
1'
0)
0#
#129
b0 1
b0 ?
b0 D
b0 H
b0 K
b0 M
b0 V
b101 5
b101 C
b101 \
b0 *
b0 U
b0 i
b101 =
b101 L
b101 A
b101 G
b101 >
b101 J
b0 ,
b0 @
b0 E
b0 I
b0 N
b0 ^
b0 +
b0 S
b0 `
b0 g
b11000 7
b11000 P
b11000 X
b11000 e
#130
b0 5
b0 C
b0 \
b0 =
b0 L
b0 >
b0 J
b0 A
b0 G
b0 (
b0 R
b0 h
#132
1#
#133
b11000 !
b11000 8
b11000 :
#134
b11100 -
b11100 Y
b11100 2
b11100 Q
b11100 W
b11100 .
b11100 ;
b11100 O
b11100 b
#135
b111 Z
b110 ]
b100 _
b101 a
b101 T
b11111111111111111111111111111000 d
b11111111111111111111111111111110 f
b11111110 c
b111111111100000010000000101 "
b111111111100000010000000101 %
#136
b11000 -
b11000 Y
b11000 2
b11000 Q
b11000 W
14
13
0'
1)
0#
#137
b10100 -
b10100 Y
b10100 2
b10100 Q
b10100 W
b101 ,
b101 @
b101 E
b101 I
b101 N
b101 ^
b101 +
b101 S
b101 `
b101 g
b10100 7
b10100 P
b10100 X
b10100 e
#138
b11111011 1
b11111011 ?
b11111011 D
b11111011 H
b11111011 K
b11111011 M
b11111011 V
b11111011 *
b11111011 U
b11111011 i
b101 =
b101 L
b11111011 (
b11111011 R
b11111011 h
#139
b11111011 5
b11111011 C
b11111011 \
b11111111 =
b11111111 L
b1 A
b1 G
b11111011 >
b11111011 J
#140
1#
#141
b10100 !
b10100 8
b10100 :
#142
b11000 .
b11000 ;
b11000 O
b11000 b
#143
b1 Z
b0 ]
b0 _
b110 a
b110 T
b0 d
b0 f
b0 c
b1000000000000000000000110 "
b1000000000000000000000110 %
#144
b11000 -
b11000 Y
b11000 2
b11000 Q
b11000 W
b101 1
b101 ?
b101 D
b101 H
b101 K
b101 M
b101 V
04
b101 *
b101 U
b101 i
03
1'
0)
0#
#145
b0 1
b0 ?
b0 D
b0 H
b0 K
b0 M
b0 V
b101 5
b101 C
b101 \
b0 *
b0 U
b0 i
b101 =
b101 L
b101 A
b101 G
b101 >
b101 J
b0 ,
b0 @
b0 E
b0 I
b0 N
b0 ^
b0 +
b0 S
b0 `
b0 g
b11000 7
b11000 P
b11000 X
b11000 e
#146
b0 5
b0 C
b0 \
b0 =
b0 L
b0 >
b0 J
b0 A
b0 G
b0 (
b0 R
b0 h
#148
1#
#149
b11000 !
b11000 8
b11000 :
#150
b11100 -
b11100 Y
b11100 2
b11100 Q
b11100 W
b11100 .
b11100 ;
b11100 O
b11100 b
#151
b111 Z
b110 ]
b100 _
b101 a
b101 T
b11111111111111111111111111111000 d
b11111111111111111111111111111110 f
b11111110 c
b111111111100000010000000101 "
b111111111100000010000000101 %
#152
b11000 -
b11000 Y
b11000 2
b11000 Q
b11000 W
14
13
0'
1)
0#
#153
b10100 -
b10100 Y
b10100 2
b10100 Q
b10100 W
b101 ,
b101 @
b101 E
b101 I
b101 N
b101 ^
b101 +
b101 S
b101 `
b101 g
b10100 7
b10100 P
b10100 X
b10100 e
#154
b11111011 1
b11111011 ?
b11111011 D
b11111011 H
b11111011 K
b11111011 M
b11111011 V
b11111011 *
b11111011 U
b11111011 i
b101 =
b101 L
b11111011 (
b11111011 R
b11111011 h
#155
b11111011 5
b11111011 C
b11111011 \
b11111111 =
b11111111 L
b1 A
b1 G
b11111011 >
b11111011 J
#156
1#
#157
b10100 !
b10100 8
b10100 :
#158
b11000 .
b11000 ;
b11000 O
b11000 b
#159
b1 Z
b0 ]
b0 _
b110 a
b110 T
b0 d
b0 f
b0 c
b1000000000000000000000110 "
b1000000000000000000000110 %
#160
b11000 -
b11000 Y
b11000 2
b11000 Q
b11000 W
b101 1
b101 ?
b101 D
b101 H
b101 K
b101 M
b101 V
04
b101 *
b101 U
b101 i
03
1'
0)
0#
#161
b0 1
b0 ?
b0 D
b0 H
b0 K
b0 M
b0 V
b101 5
b101 C
b101 \
b0 *
b0 U
b0 i
b101 =
b101 L
b101 A
b101 G
b101 >
b101 J
b0 ,
b0 @
b0 E
b0 I
b0 N
b0 ^
b0 +
b0 S
b0 `
b0 g
b11000 7
b11000 P
b11000 X
b11000 e
#162
b0 5
b0 C
b0 \
b0 =
b0 L
b0 >
b0 J
b0 A
b0 G
b0 (
b0 R
b0 h
#164
1#
#165
b11000 !
b11000 8
b11000 :
#166
b11100 -
b11100 Y
b11100 2
b11100 Q
b11100 W
b11100 .
b11100 ;
b11100 O
b11100 b
#167
b111 Z
b110 ]
b100 _
b101 a
b101 T
b11111111111111111111111111111000 d
b11111111111111111111111111111110 f
b11111110 c
b111111111100000010000000101 "
b111111111100000010000000101 %
#168
b11000 -
b11000 Y
b11000 2
b11000 Q
b11000 W
14
13
0'
1)
0#
#169
b10100 -
b10100 Y
b10100 2
b10100 Q
b10100 W
b101 ,
b101 @
b101 E
b101 I
b101 N
b101 ^
b101 +
b101 S
b101 `
b101 g
b10100 7
b10100 P
b10100 X
b10100 e
#170
b11111011 1
b11111011 ?
b11111011 D
b11111011 H
b11111011 K
b11111011 M
b11111011 V
b11111011 *
b11111011 U
b11111011 i
b101 =
b101 L
b11111011 (
b11111011 R
b11111011 h
#171
b11111011 5
b11111011 C
b11111011 \
b11111111 =
b11111111 L
b1 A
b1 G
b11111011 >
b11111011 J
#172
1#
#173
b10100 !
b10100 8
b10100 :
#174
b11000 .
b11000 ;
b11000 O
b11000 b
#175
b1 Z
b0 ]
b0 _
b110 a
b110 T
b0 d
b0 f
b0 c
b1000000000000000000000110 "
b1000000000000000000000110 %
#176
b11000 -
b11000 Y
b11000 2
b11000 Q
b11000 W
b101 1
b101 ?
b101 D
b101 H
b101 K
b101 M
b101 V
04
b101 *
b101 U
b101 i
03
1'
0)
0#
#177
b0 1
b0 ?
b0 D
b0 H
b0 K
b0 M
b0 V
b101 5
b101 C
b101 \
b0 *
b0 U
b0 i
b101 =
b101 L
b101 A
b101 G
b101 >
b101 J
b0 ,
b0 @
b0 E
b0 I
b0 N
b0 ^
b0 +
b0 S
b0 `
b0 g
b11000 7
b11000 P
b11000 X
b11000 e
#178
b0 5
b0 C
b0 \
b0 =
b0 L
b0 >
b0 J
b0 A
b0 G
b0 (
b0 R
b0 h
#180
1#
#181
b11000 !
b11000 8
b11000 :
#182
b11100 -
b11100 Y
b11100 2
b11100 Q
b11100 W
b11100 .
b11100 ;
b11100 O
b11100 b
#183
b111 Z
b110 ]
b100 _
b101 a
b101 T
b11111111111111111111111111111000 d
b11111111111111111111111111111110 f
b11111110 c
b111111111100000010000000101 "
b111111111100000010000000101 %
#184
b11000 -
b11000 Y
b11000 2
b11000 Q
b11000 W
14
13
0'
1)
0#
#185
b10100 -
b10100 Y
b10100 2
b10100 Q
b10100 W
b101 ,
b101 @
b101 E
b101 I
b101 N
b101 ^
b101 +
b101 S
b101 `
b101 g
b10100 7
b10100 P
b10100 X
b10100 e
#186
b11111011 1
b11111011 ?
b11111011 D
b11111011 H
b11111011 K
b11111011 M
b11111011 V
b11111011 *
b11111011 U
b11111011 i
b101 =
b101 L
b11111011 (
b11111011 R
b11111011 h
#187
b11111011 5
b11111011 C
b11111011 \
b11111111 =
b11111111 L
b1 A
b1 G
b11111011 >
b11111011 J
#188
1#
#189
b10100 !
b10100 8
b10100 :
#190
b11000 .
b11000 ;
b11000 O
b11000 b
#191
b1 Z
b0 ]
b0 _
b110 a
b110 T
b0 d
b0 f
b0 c
b1000000000000000000000110 "
b1000000000000000000000110 %
#192
b11000 -
b11000 Y
b11000 2
b11000 Q
b11000 W
b101 1
b101 ?
b101 D
b101 H
b101 K
b101 M
b101 V
04
b101 *
b101 U
b101 i
03
1'
0)
0#
#193
b0 1
b0 ?
b0 D
b0 H
b0 K
b0 M
b0 V
b101 5
b101 C
b101 \
b0 *
b0 U
b0 i
b101 =
b101 L
b101 A
b101 G
b101 >
b101 J
b0 ,
b0 @
b0 E
b0 I
b0 N
b0 ^
b0 +
b0 S
b0 `
b0 g
b11000 7
b11000 P
b11000 X
b11000 e
#194
b0 5
b0 C
b0 \
b0 =
b0 L
b0 >
b0 J
b0 A
b0 G
b0 (
b0 R
b0 h
#196
1#
#197
b11000 !
b11000 8
b11000 :
#198
b11100 -
b11100 Y
b11100 2
b11100 Q
b11100 W
b11100 .
b11100 ;
b11100 O
b11100 b
#199
b111 Z
b110 ]
b100 _
b101 a
b101 T
b11111111111111111111111111111000 d
b11111111111111111111111111111110 f
b11111110 c
b111111111100000010000000101 "
b111111111100000010000000101 %
#200
b11000 -
b11000 Y
b11000 2
b11000 Q
b11000 W
14
13
0'
1)
0#
#201
b10100 -
b10100 Y
b10100 2
b10100 Q
b10100 W
b101 ,
b101 @
b101 E
b101 I
b101 N
b101 ^
b101 +
b101 S
b101 `
b101 g
b10100 7
b10100 P
b10100 X
b10100 e
#202
b11111011 1
b11111011 ?
b11111011 D
b11111011 H
b11111011 K
b11111011 M
b11111011 V
b11111011 *
b11111011 U
b11111011 i
b101 =
b101 L
b11111011 (
b11111011 R
b11111011 h
#203
b11111011 5
b11111011 C
b11111011 \
b11111111 =
b11111111 L
b1 A
b1 G
b11111011 >
b11111011 J
#204
1#
#205
b10100 !
b10100 8
b10100 :
#206
b11000 .
b11000 ;
b11000 O
b11000 b
#207
b1 Z
b0 ]
b0 _
b110 a
b110 T
b0 d
b0 f
b0 c
b1000000000000000000000110 "
b1000000000000000000000110 %
#208
b11000 -
b11000 Y
b11000 2
b11000 Q
b11000 W
b101 1
b101 ?
b101 D
b101 H
b101 K
b101 M
b101 V
04
b101 *
b101 U
b101 i
03
1'
0)
0#
#209
b0 1
b0 ?
b0 D
b0 H
b0 K
b0 M
b0 V
b101 5
b101 C
b101 \
b0 *
b0 U
b0 i
b101 =
b101 L
b101 A
b101 G
b101 >
b101 J
b0 ,
b0 @
b0 E
b0 I
b0 N
b0 ^
b0 +
b0 S
b0 `
b0 g
b11000 7
b11000 P
b11000 X
b11000 e
#210
b0 5
b0 C
b0 \
b0 =
b0 L
b0 >
b0 J
b0 A
b0 G
b0 (
b0 R
b0 h
#212
1#
#213
b11000 !
b11000 8
b11000 :
#214
b11100 -
b11100 Y
b11100 2
b11100 Q
b11100 W
b11100 .
b11100 ;
b11100 O
b11100 b
#215
b111 Z
b110 ]
b100 _
b101 a
b101 T
b11111111111111111111111111111000 d
b11111111111111111111111111111110 f
b11111110 c
b111111111100000010000000101 "
b111111111100000010000000101 %
#216
b11000 -
b11000 Y
b11000 2
b11000 Q
b11000 W
14
13
0'
1)
0#
#217
b10100 -
b10100 Y
b10100 2
b10100 Q
b10100 W
b101 ,
b101 @
b101 E
b101 I
b101 N
b101 ^
b101 +
b101 S
b101 `
b101 g
b10100 7
b10100 P
b10100 X
b10100 e
#218
b11111011 1
b11111011 ?
b11111011 D
b11111011 H
b11111011 K
b11111011 M
b11111011 V
b11111011 *
b11111011 U
b11111011 i
b101 =
b101 L
b11111011 (
b11111011 R
b11111011 h
